tree_parser/output/dump.vcd
$date
	Sun Sep 22 22:09:53 2013
$end
$version
	Icarus Verilog
$end
$timescale
	1s
$end
$scope module posedge_reg $end
$var wire 1 ! CLK $end
$var wire 1 " RESin $end
$var wire 1 # RST $end
$var reg 1 $ RESold $end
$var reg 1 % RESout $end
$upscope $end
$scope module root_tb $end
$var wire 1 & CLK $end
$var wire 16 ' IN0 [15:0] $end
$var wire 16 ( IN1 [15:0] $end
$var wire 16 ) IN2 [15:0] $end
$var wire 16 * IN3 [15:0] $end
$var wire 16 + IN4 [15:0] $end
$var wire 1 , RD $end
$var wire 16 - RES [15:0] $end
$var wire 1 . RST $end
$var wire 1 / ST $end
$var reg 1 0 rCLK $end
$var reg 16 1 rIN0 [15:0] $end
$var reg 16 2 rIN1 [15:0] $end
$var reg 16 3 rIN2 [15:0] $end
$var reg 16 4 rIN3 [15:0] $end
$var reg 16 5 rIN4 [15:0] $end
$var reg 1 6 rRST $end
$var reg 1 7 rST $end
$scope module root $end
$var wire 1 & CLK $end
$var wire 16 8 IN0 [15:0] $end
$var wire 16 9 IN1 [15:0] $end
$var wire 16 : IN2 [15:0] $end
$var wire 16 ; IN3 [15:0] $end
$var wire 16 < IN4 [15:0] $end
$var wire 1 , RD $end
$var wire 16 = RES [15:0] $end
$var wire 1 . RST $end
$var wire 1 / ST $end
$var wire 1 > node_R105807_rd $end
$var wire 16 ? node_R105807_res [15:0] $end
$var wire 1 @ node_R105807_st $end
$var wire 1 A node_R342462_rd $end
$var wire 16 B node_R342462_res [15:0] $end
$var wire 1 C node_R342462_st $end
$var wire 1 D node_R839304_rd $end
$var wire 16 E node_R839304_res [15:0] $end
$var wire 1 F node_R839304_st $end
$var wire 1 G node_R971708_rd $end
$var wire 16 H node_R971708_res [15:0] $end
$var wire 1 I node_R971708_st $end
$scope module n_R971708 $end
$var wire 1 & CLK $end
$var wire 16 J IN0 [15:0] $end
$var wire 16 K IN1 [15:0] $end
$var wire 16 L IN2 [15:0] $end
$var wire 1 . RST $end
$var wire 1 I ST $end
$var wire 1 M STst $end
$var wire 1 N rd_g $end
$var wire 1 O rd_h $end
$var wire 16 P res_g [15:0] $end
$var wire 16 Q res_h [15:0] $end
$var reg 16 R BUF [15:0] $end
$var reg 16 S CNT [15:0] $end
$var reg 16 T ITERATIONS [15:0] $end
$var reg 1 U RD $end
$var reg 16 V RES [15:0] $end
$var reg 1 W STold $end
$var reg 1 X rd_g_old $end
$var reg 1 Y rd_h_old $end
$var reg 1 Z st_h $end
$var reg 1 [ st_h_f $end
$scope module strtr1 $end
$var wire 1 & CLK $end
$var wire 1 . RST $end
$var wire 1 I Stin $end
$var reg 2 \ CNT [1:0] $end
$var reg 1 ] Stold $end
$var reg 1 ^ Stout $end
$upscope $end
$scope module g $end
$var wire 1 & CLK $end
$var wire 16 _ IN0 [15:0] $end
$var wire 16 ` IN1 [15:0] $end
$var wire 1 N RD $end
$var wire 16 a RES [15:0] $end
$var wire 1 . RST $end
$var wire 1 M ST $end
$var wire 1 b node_o715633_rd $end
$var wire 16 c node_o715633_res [15:0] $end
$var wire 1 d node_o715633_st $end
$scope module n_o715633 $end
$var wire 1 & CLK $end
$var wire 16 e IN0 [15:0] $end
$var wire 16 f IN1 [15:0] $end
$var wire 1 . RST $end
$var wire 1 d ST $end
$var reg 1 g RD $end
$var reg 16 h RES [15:0] $end
$var reg 1 i RF $end
$var reg 1 j STold $end
$upscope $end
$upscope $end
$scope module h $end
$var wire 1 & CLK $end
$var wire 16 k IN0 [15:0] $end
$var wire 16 l IN1 [15:0] $end
$var wire 16 m IN2 [15:0] $end
$var wire 1 O RD $end
$var wire 16 n RES [15:0] $end
$var wire 1 . RST $end
$var wire 1 o ST $end
$var wire 1 p node_R830051_rd $end
$var wire 16 q node_R830051_res [15:0] $end
$var wire 1 r node_R830051_st $end
$var wire 1 s node_i115175_rd $end
$var wire 16 t node_i115175_res [15:0] $end
$var wire 1 u node_i115175_st $end
$scope module n_R830051 $end
$var wire 1 & CLK $end
$var wire 16 v IN0 [15:0] $end
$var wire 16 w IN1 [15:0] $end
$var wire 16 x IN2 [15:0] $end
$var wire 1 . RST $end
$var wire 1 r ST $end
$var wire 1 y STst $end
$var wire 1 z rd_g $end
$var wire 1 { rd_h $end
$var wire 16 | res_g [15:0] $end
$var wire 16 } res_h [15:0] $end
$var reg 16 ~ BUF [15:0] $end
$var reg 16 !" CNT [15:0] $end
$var reg 16 "" ITERATIONS [15:0] $end
$var reg 1 #" RD $end
$var reg 16 $" RES [15:0] $end
$var reg 1 %" STold $end
$var reg 1 &" rd_g_old $end
$var reg 1 '" rd_h_old $end
$var reg 1 (" st_h $end
$var reg 1 )" st_h_f $end
$scope module strtr1 $end
$var wire 1 & CLK $end
$var wire 1 . RST $end
$var wire 1 r Stin $end
$var reg 2 *" CNT [1:0] $end
$var reg 1 +" Stold $end
$var reg 1 ," Stout $end
$upscope $end
$scope module g $end
$var wire 1 & CLK $end
$var wire 16 -" IN0 [15:0] $end
$var wire 16 ." IN1 [15:0] $end
$var wire 1 z RD $end
$var wire 16 /" RES [15:0] $end
$var wire 1 . RST $end
$var wire 1 y ST $end
$var wire 1 0" node_i176191_rd $end
$var wire 16 1" node_i176191_res [15:0] $end
$var wire 1 2" node_i176191_st $end
$scope module n_i176191 $end
$var wire 1 & CLK $end
$var wire 16 3" IN0 [15:0] $end
$var wire 16 4" IN1 [15:0] $end
$var wire 1 . RST $end
$var wire 1 2" ST $end
$var reg 1 5" RD $end
$var reg 16 6" RES [15:0] $end
$var reg 1 7" RF $end
$var reg 1 8" STold $end
$upscope $end
$upscope $end
$scope module h $end
$var wire 1 & CLK $end
$var wire 16 9" IN0 [15:0] $end
$var wire 16 :" IN1 [15:0] $end
$var wire 16 ;" IN2 [15:0] $end
$var wire 1 { RD $end
$var wire 16 <" RES [15:0] $end
$var wire 1 . RST $end
$var wire 1 =" ST $end
$var wire 1 >" node_i747374_rd $end
$var wire 16 ?" node_i747374_res [15:0] $end
$var wire 1 @" node_i747374_st $end
$var wire 1 A" node_s565034_rd $end
$var wire 16 B" node_s565034_res [15:0] $end
$var wire 1 C" node_s565034_st $end
$scope module n_s565034 $end
$var wire 1 & CLK $end
$var wire 16 D" IN [15:0] $end
$var wire 1 . RST $end
$var wire 1 C" ST $end
$var reg 1 E" RD $end
$var reg 16 F" RES [15:0] $end
$var reg 1 G" RF $end
$var reg 1 H" STold $end
$upscope $end
$scope module n_i747374 $end
$var wire 1 & CLK $end
$var wire 16 I" IN0 [15:0] $end
$var wire 16 J" IN1 [15:0] $end
$var wire 16 K" IN2 [15:0] $end
$var wire 1 . RST $end
$var wire 1 @" ST $end
$var reg 1 L" RD $end
$var reg 16 M" RES [15:0] $end
$var reg 1 N" RF $end
$var reg 1 O" STold $end
$upscope $end
$upscope $end
$upscope $end
$scope module n_i115175 $end
$var wire 1 & CLK $end
$var wire 16 P" IN0 [15:0] $end
$var wire 16 Q" IN1 [15:0] $end
$var wire 16 R" IN2 [15:0] $end
$var wire 1 . RST $end
$var wire 1 u ST $end
$var reg 1 S" RD $end
$var reg 16 T" RES [15:0] $end
$var reg 1 U" RF $end
$var reg 1 V" STold $end
$upscope $end
$upscope $end
$upscope $end
$scope module n_R342462 $end
$var wire 1 & CLK $end
$var wire 16 W" IN0 [15:0] $end
$var wire 16 X" IN1 [15:0] $end
$var wire 16 Y" IN2 [15:0] $end
$var wire 1 . RST $end
$var wire 1 C ST $end
$var wire 1 Z" STst $end
$var wire 1 [" rd_g $end
$var wire 1 \" rd_h $end
$var wire 16 ]" res_g [15:0] $end
$var wire 16 ^" res_h [15:0] $end
$var reg 16 _" BUF [15:0] $end
$var reg 16 `" CNT [15:0] $end
$var reg 16 a" ITERATIONS [15:0] $end
$var reg 1 b" RD $end
$var reg 16 c" RES [15:0] $end
$var reg 1 d" STold $end
$var reg 1 e" rd_g_old $end
$var reg 1 f" rd_h_old $end
$var reg 1 g" st_h $end
$var reg 1 h" st_h_f $end
$scope module strtr1 $end
$var wire 1 & CLK $end
$var wire 1 . RST $end
$var wire 1 C Stin $end
$var reg 2 i" CNT [1:0] $end
$var reg 1 j" Stold $end
$var reg 1 k" Stout $end
$upscope $end
$scope module g $end
$var wire 1 & CLK $end
$var wire 16 l" IN0 [15:0] $end
$var wire 16 m" IN1 [15:0] $end
$var wire 1 [" RD $end
$var wire 16 n" RES [15:0] $end
$var wire 1 . RST $end
$var wire 1 Z" ST $end
$var wire 1 o" node_i911139_rd $end
$var wire 16 p" node_i911139_res [15:0] $end
$var wire 1 q" node_i911139_st $end
$scope module n_i911139 $end
$var wire 1 & CLK $end
$var wire 16 r" IN0 [15:0] $end
$var wire 16 s" IN1 [15:0] $end
$var wire 1 . RST $end
$var wire 1 q" ST $end
$var reg 1 t" RD $end
$var reg 16 u" RES [15:0] $end
$var reg 1 v" RF $end
$var reg 1 w" STold $end
$upscope $end
$upscope $end
$scope module h $end
$var wire 1 & CLK $end
$var wire 16 x" IN0 [15:0] $end
$var wire 16 y" IN1 [15:0] $end
$var wire 16 z" IN2 [15:0] $end
$var wire 1 \" RD $end
$var wire 16 {" RES [15:0] $end
$var wire 1 . RST $end
$var wire 1 |" ST $end
$var wire 1 }" node_i986560_rd $end
$var wire 16 ~" node_i986560_res [15:0] $end
$var wire 1 !# node_i986560_st $end
$var wire 1 "# node_s938797_rd $end
$var wire 16 ## node_s938797_res [15:0] $end
$var wire 1 $# node_s938797_st $end
$scope module n_s938797 $end
$var wire 1 & CLK $end
$var wire 16 %# IN [15:0] $end
$var wire 1 . RST $end
$var wire 1 $# ST $end
$var reg 1 &# RD $end
$var reg 16 '# RES [15:0] $end
$var reg 1 (# RF $end
$var reg 1 )# STold $end
$upscope $end
$scope module n_i986560 $end
$var wire 1 & CLK $end
$var wire 16 *# IN0 [15:0] $end
$var wire 16 +# IN1 [15:0] $end
$var wire 16 ,# IN2 [15:0] $end
$var wire 1 . RST $end
$var wire 1 !# ST $end
$var reg 1 -# RD $end
$var reg 16 .# RES [15:0] $end
$var reg 1 /# RF $end
$var reg 1 0# STold $end
$upscope $end
$upscope $end
$upscope $end
$scope module n_R105807 $end
$var wire 1 & CLK $end
$var wire 16 1# IN0 [15:0] $end
$var wire 16 2# IN1 [15:0] $end
$var wire 16 3# IN2 [15:0] $end
$var wire 1 . RST $end
$var wire 1 @ ST $end
$var wire 1 4# STst $end
$var wire 1 5# rd_g $end
$var wire 1 6# rd_h $end
$var wire 16 7# res_g [15:0] $end
$var wire 16 8# res_h [15:0] $end
$var reg 16 9# BUF [15:0] $end
$var reg 16 :# CNT [15:0] $end
$var reg 16 ;# ITERATIONS [15:0] $end
$var reg 1 <# RD $end
$var reg 16 =# RES [15:0] $end
$var reg 1 ># STold $end
$var reg 1 ?# rd_g_old $end
$var reg 1 @# rd_h_old $end
$var reg 1 A# st_h $end
$var reg 1 B# st_h_f $end
$scope module strtr1 $end
$var wire 1 & CLK $end
$var wire 1 . RST $end
$var wire 1 @ Stin $end
$var reg 2 C# CNT [1:0] $end
$var reg 1 D# Stold $end
$var reg 1 E# Stout $end
$upscope $end
$scope module g $end
$var wire 1 & CLK $end
$var wire 16 F# IN0 [15:0] $end
$var wire 16 G# IN1 [15:0] $end
$var wire 1 5# RD $end
$var wire 16 H# RES [15:0] $end
$var wire 1 . RST $end
$var wire 1 4# ST $end
$var wire 1 I# node_i385590_rd $end
$var wire 16 J# node_i385590_res [15:0] $end
$var wire 1 K# node_i385590_st $end
$scope module n_i385590 $end
$var wire 1 & CLK $end
$var wire 16 L# IN0 [15:0] $end
$var wire 16 M# IN1 [15:0] $end
$var wire 1 . RST $end
$var wire 1 K# ST $end
$var reg 1 N# RD $end
$var reg 16 O# RES [15:0] $end
$var reg 1 P# RF $end
$var reg 1 Q# STold $end
$upscope $end
$upscope $end
$scope module h $end
$var wire 1 & CLK $end
$var wire 16 R# IN0 [15:0] $end
$var wire 16 S# IN1 [15:0] $end
$var wire 16 T# IN2 [15:0] $end
$var wire 1 6# RD $end
$var wire 16 U# RES [15:0] $end
$var wire 1 . RST $end
$var wire 1 V# ST $end
$var wire 1 W# node_i560546_rd $end
$var wire 16 X# node_i560546_res [15:0] $end
$var wire 1 Y# node_i560546_st $end
$var wire 1 Z# node_s563208_rd $end
$var wire 16 [# node_s563208_res [15:0] $end
$var wire 1 \# node_s563208_st $end
$scope module n_s563208 $end
$var wire 1 & CLK $end
$var wire 16 ]# IN [15:0] $end
$var wire 1 . RST $end
$var wire 1 \# ST $end
$var reg 1 ^# RD $end
$var reg 16 _# RES [15:0] $end
$var reg 1 `# RF $end
$var reg 1 a# STold $end
$upscope $end
$scope module n_i560546 $end
$var wire 1 & CLK $end
$var wire 16 b# IN0 [15:0] $end
$var wire 16 c# IN1 [15:0] $end
$var wire 16 d# IN2 [15:0] $end
$var wire 1 . RST $end
$var wire 1 Y# ST $end
$var reg 1 e# RD $end
$var reg 16 f# RES [15:0] $end
$var reg 1 g# RF $end
$var reg 1 h# STold $end
$upscope $end
$upscope $end
$upscope $end
$scope module n_R839304 $end
$var wire 1 & CLK $end
$var wire 16 i# IN0 [15:0] $end
$var wire 16 j# IN1 [15:0] $end
$var wire 16 k# IN2 [15:0] $end
$var wire 1 . RST $end
$var wire 1 F ST $end
$var wire 1 l# STst $end
$var wire 1 m# rd_g $end
$var wire 1 n# rd_h $end
$var wire 16 o# res_g [15:0] $end
$var wire 16 p# res_h [15:0] $end
$var reg 16 q# BUF [15:0] $end
$var reg 16 r# CNT [15:0] $end
$var reg 16 s# ITERATIONS [15:0] $end
$var reg 1 t# RD $end
$var reg 16 u# RES [15:0] $end
$var reg 1 v# STold $end
$var reg 1 w# rd_g_old $end
$var reg 1 x# rd_h_old $end
$var reg 1 y# st_h $end
$var reg 1 z# st_h_f $end
$scope module strtr1 $end
$var wire 1 & CLK $end
$var wire 1 . RST $end
$var wire 1 F Stin $end
$var reg 2 {# CNT [1:0] $end
$var reg 1 |# Stold $end
$var reg 1 }# Stout $end
$upscope $end
$scope module g $end
$var wire 1 & CLK $end
$var wire 16 ~# IN0 [15:0] $end
$var wire 16 !$ IN1 [15:0] $end
$var wire 1 m# RD $end
$var wire 16 "$ RES [15:0] $end
$var wire 1 . RST $end
$var wire 1 l# ST $end
$var wire 1 #$ node_i758168_rd $end
$var wire 16 $$ node_i758168_res [15:0] $end
$var wire 1 %$ node_i758168_st $end
$scope module n_i758168 $end
$var wire 1 & CLK $end
$var wire 16 &$ IN0 [15:0] $end
$var wire 16 '$ IN1 [15:0] $end
$var wire 1 . RST $end
$var wire 1 %$ ST $end
$var reg 1 ($ RD $end
$var reg 16 )$ RES [15:0] $end
$var reg 1 *$ RF $end
$var reg 1 +$ STold $end
$upscope $end
$upscope $end
$scope module h $end
$var wire 1 & CLK $end
$var wire 16 ,$ IN0 [15:0] $end
$var wire 16 -$ IN1 [15:0] $end
$var wire 16 .$ IN2 [15:0] $end
$var wire 1 n# RD $end
$var wire 16 /$ RES [15:0] $end
$var wire 1 . RST $end
$var wire 1 0$ ST $end
$var wire 1 1$ node_i183247_rd $end
$var wire 16 2$ node_i183247_res [15:0] $end
$var wire 1 3$ node_i183247_st $end
$var wire 1 4$ node_s777386_rd $end
$var wire 16 5$ node_s777386_res [15:0] $end
$var wire 1 6$ node_s777386_st $end
$scope module n_s777386 $end
$var wire 1 & CLK $end
$var wire 16 7$ IN [15:0] $end
$var wire 1 . RST $end
$var wire 1 6$ ST $end
$var reg 1 8$ RD $end
$var reg 16 9$ RES [15:0] $end
$var reg 1 :$ RF $end
$var reg 1 ;$ STold $end
$upscope $end
$scope module n_i183247 $end
$var wire 1 & CLK $end
$var wire 16 <$ IN0 [15:0] $end
$var wire 16 =$ IN1 [15:0] $end
$var wire 16 >$ IN2 [15:0] $end
$var wire 1 . RST $end
$var wire 1 3$ ST $end
$var reg 1 ?$ RD $end
$var reg 16 @$ RES [15:0] $end
$var reg 1 A$ RF $end
$var reg 1 B$ STold $end
$upscope $end
$upscope $end
$upscope $end
$upscope $end
$upscope $end
$enddefinitions $end
#0
$dumpvars
xB$
xA$
bx @$
x?$
bx >$
bx =$
bx <$
x;$
x:$
bx 9$
x8$
bx 7$
x6$
bx 5$
x4$
x3$
bx 2$
x1$
x0$
bx /$
bx .$
bx -$
bx ,$
x+$
x*$
bx )$
x($
bx '$
bx &$
x%$
bx $$
x#$
bx "$
bx !$
bx ~#
x}#
x|#
bx {#
xz#
xy#
xx#
xw#
xv#
bx u#
xt#
bx s#
bx r#
bx q#
bx p#
bx o#
xn#
xm#
xl#
bx k#
bx j#
bx i#
xh#
xg#
bx f#
xe#
bx d#
b11 c#
b10 b#
xa#
x`#
bx _#
x^#
bx ]#
x\#
bx [#
xZ#
xY#
bx X#
xW#
xV#
bx U#
bx T#
b11 S#
b10 R#
xQ#
xP#
bx O#
xN#
b11 M#
b10 L#
xK#
bx J#
xI#
bx H#
b11 G#
b10 F#
xE#
xD#
bx C#
xB#
xA#
x@#
x?#
x>#
bx =#
x<#
bx ;#
bx :#
bx 9#
bx 8#
bx 7#
x6#
x5#
x4#
bx 3#
b11 2#
b10 1#
x0#
x/#
bx .#
x-#
bx ,#
b11 +#
bx *#
x)#
x(#
bx '#
x&#
bx %#
x$#
bx ##
x"#
x!#
bx ~"
x}"
x|"
bx {"
bx z"
b11 y"
bx x"
xw"
xv"
bx u"
xt"
b11 s"
bx r"
xq"
bx p"
xo"
bx n"
b11 m"
bx l"
xk"
xj"
bx i"
xh"
xg"
xf"
xe"
xd"
bx c"
xb"
bx a"
bx `"
bx _"
bx ^"
bx ]"
x\"
x["
xZ"
bx Y"
b11 X"
bx W"
xV"
xU"
bx T"
xS"
bx R"
b11 Q"
b10 P"
xO"
xN"
bx M"
xL"
bx K"
b10 J"
bx I"
xH"
xG"
bx F"
xE"
bx D"
xC"
bx B"
xA"
x@"
bx ?"
x>"
x="
bx <"
bx ;"
b10 :"
bx 9"
x8"
x7"
bx 6"
x5"
b10 4"
bx 3"
x2"
bx 1"
x0"
bx /"
b10 ."
bx -"
x,"
x+"
bx *"
x)"
x("
x'"
x&"
x%"
bx $"
x#"
bx ""
bx !"
bx ~
bx }
bx |
x{
xz
xy
bx x
b10 w
bx v
xu
bx t
xs
xr
bx q
xp
xo
bx n
bx m
b11 l
b10 k
xj
xi
bx h
xg
b11 f
b10 e
xd
bx c
xb
bx a
b11 `
b10 _
x^
x]
bx \
x[
xZ
xY
xX
xW
bx V
xU
bx T
bx S
bx R
bx Q
bx P
xO
xN
xM
bx L
b11 K
b10 J
0I
bx H
xG
xF
bx E
xD
xC
bx B
xA
0@
bx ?
x>
bx =
b11 <
b10 ;
b11 :
b11 9
b10 8
07
16
b11 5
b10 4
b11 3
b11 2
b10 1
00
0/
1.
bx -
x,
b11 +
b10 *
b11 )
b11 (
b10 '
0&
x%
x$
z#
z"
z!
$end
#5
1,
1{
1O
1\"
16#
1F
1n#
0]
0^
0d
0M
b0 \
1g
1b
1N
0+"
0,"
02"
0y
b0 *"
08"
15"
10"
1z
0H"
1G"
1E"
1A"
1@"
0O"
1L"
1>"
0("
0C"
0="
0)"
x'"
x&"
0%"
b0 !"
1#"
1p
1u
0V"
1S"
1s
0Z
0r
0o
0[
xY
xX
0W
b0 S
1U
1G
1C
0k"
0q"
0Z"
b0 i"
0w"
1t"
1o"
1["
0)#
1(#
1&#
1"#
1!#
00#
1-#
1}"
0g"
0$#
0|"
0h"
xf"
xe"
0d"
b0 `"
1b"
1A
0D#
0E#
0K#
04#
b0 C#
0Q#
1N#
1I#
15#
0a#
1`#
1^#
1Z#
1Y#
0h#
1e#
1W#
0A#
0\#
0V#
0B#
x@#
x?#
0>#
b0 :#
1<#
1>
0}#
0%$
0l#
b0 {#
0+$
1($
1#$
1m#
0;$
1:$
18$
14$
13$
0B$
1?$
11$
0y#
06$
00$
0z#
xx#
xw#
0v#
b0 r#
1t#
1D
10
1&
#10
00
0&
#15
0n#
06#
0\"
0O
0{
1x#
1w#
1B$
0A$
0?$
01$
1|#
1@#
1?#
1h#
0g#
0e#
0W#
1f"
1e"
10#
0/#
0-#
0}"
1j"
1Y
1X
1V"
0U"
0S"
0s
1'"
1&"
1O"
0N"
0L"
0>"
0j
10
1&
06
0.
#20
00
0&
#25
1N"
0'"
1U"
0Y
1/#
0f"
1g#
0@#
1A$
0x#
10
1&
#30
00
0&
#35
0,
1n#
0F
16#
1\"
1O
1{
1?$
11$
0?#
1>#
b101 ;#
0<#
0>
1e#
1W#
1Q#
0P#
0N#
0I#
05#
1D#
1E#
1K#
14#
b11 C#
1-#
1}"
0j"
0X
1W
b101 T
0U
0G
0C
1S"
1s
1L"
1>"
1j
0i
0g
0b
0N
1]
1^
1d
1M
b11 \
10
1&
17
1I
1@
1/
#40
00
0&
#45
b0 L
b0 m
b0 v
b0 -"
b0 3"
b0 9"
b0 I"
b10 3#
b10 T#
b10 ]#
06#
0]
b10 \
1i
b0 h
b0 c
b0 P
b0 a
1+"
1,"
12"
1y
b11 *"
1'"
1Y
1Z
1r
1o
1[
b1 S
1f"
0D#
b10 C#
1P#
b10 O#
b10 J#
b10 7#
b10 H#
1a#
0^#
0Z#
0Y#
0`#
1@#
1A#
1\#
1V#
1B#
b1 :#
0|#
1x#
10
1&
07
0I
0@
0/
#50
00
0&
#55
0O
0@#
1?#
0B#
0h#
1`#
b11 _#
b11 [#
b11 d#
1N#
1I#
15#
b1 C#
1X
0[
0V"
0&"
1%"
b100 ""
0#"
0p
0u
18"
07"
05"
00"
0z
b10 *"
1g
1b
1N
b1 \
10
1&
#60
00
0&
#65
b0 x
b0 ;"
b0 D"
16#
0^
0d
0M
b0 \
0+"
b1 *"
17"
b0 6"
b0 1"
b0 |
b0 /"
0Y
0Z
0r
0o
0E#
0K#
04#
b0 C#
0a#
1^#
1Z#
1Y#
0A#
0\#
0V#
10
1&
#70
00
0&
#75
b0xxxxxxxxxxxxxxx 3#
b0xxxxxxxxxxxxxxx T#
b0xxxxxxxxxxxxxxx ]#
06#
1@#
0>#
1A#
1\#
1V#
1B#
b10 :#
1h#
0g#
0e#
0W#
0Q#
0W
1&"
0%"
1("
1C"
1="
1)"
b0 ~
08"
15"
10"
1z
0,"
02"
0y
b0 *"
0j
10
1&
#80
00
0&
#85
b11 3#
b11 T#
b11 ]#
0{
1H"
0E"
0A"
0@"
0G"
0)"
1a#
0^#
0Z#
0Y#
0`#
1g#
b11 f#
b11 X#
b11 8#
b11 U#
0@#
0B#
10
1&
#90
00
0&
#95
0A#
0\#
0V#
0h#
1e#
1W#
1`#
b100 _#
b100 [#
b100 d#
0'"
0("
0C"
0="
0O"
1G"
b1 F"
b1 B"
b1 K"
10
1&
#100
00
0&
#105
1{
16#
0H"
1E"
1A"
1@"
0a#
1^#
1Z#
1Y#
10
1&
#110
00
0&
#115
06#
0{
1@#
1A#
1\#
1V#
1B#
b11 :#
b11 9#
1h#
0g#
0e#
0W#
1'"
1("
1C"
1="
1)"
b1 !"
bx ~
1O"
0N"
0L"
0>"
10
1&
#120
00
0&
#125
b100 3#
b100 T#
b100 ]#
1H"
0E"
0A"
0@"
0G"
1N"
b1 M"
b1 ?"
b1 }
b1 <"
0'"
0)"
1a#
0^#
0Z#
0Y#
0`#
1g#
b100 f#
b100 X#
b100 8#
b100 U#
0@#
0B#
10
1&
#130
00
0&
#135
0A#
0\#
0V#
0h#
1e#
1W#
1`#
b101 _#
b101 [#
b101 d#
0("
0C"
0="
0O"
1L"
1>"
1G"
10
1&
#140
00
0&
#145
1{
16#
0H"
1E"
1A"
1@"
0a#
1^#
1Z#
1Y#
10
1&
#150
00
0&
#155
06#
b1 x
b1 ;"
b1 D"
0{
1@#
1A#
1\#
1V#
1B#
b100 :#
b100 9#
1h#
0g#
0e#
0W#
1'"
1("
1C"
1="
1)"
b10 !"
b1 ~
1O"
0N"
0L"
0>"
10
1&
#160
00
0&
#165
b101 3#
b101 T#
b101 ]#
1H"
0E"
0A"
0@"
0G"
1N"
0'"
0)"
1a#
0^#
0Z#
0Y#
0`#
1g#
b101 f#
b101 X#
b101 8#
b101 U#
0@#
0B#
10
1&
#170
00
0&
#175
0A#
0\#
0V#
0h#
1e#
1W#
1`#
b110 _#
b110 [#
b110 d#
0("
0C"
0="
0O"
1L"
1>"
1G"
b10 F"
b10 B"
b10 K"
10
1&
#180
00
0&
#185
1{
16#
0H"
1E"
1A"
1@"
0a#
1^#
1Z#
1Y#
10
1&
#190
00
0&
#195
06#
0{
1@#
1A#
1\#
1V#
1B#
b101 :#
b101 9#
1h#
0g#
0e#
0W#
1'"
1("
1C"
1="
1)"
b11 !"
1O"
0N"
0L"
0>"
10
1&
#200
00
0&
#205
b10 x
b10 ;"
b10 D"
b10 3#
b10 T#
b10 ]#
1F
1H"
0E"
0A"
0@"
0G"
1N"
b10 M"
b10 ?"
b10 }
b10 <"
0'"
0)"
1g#
b110 f#
b110 X#
b110 8#
b110 U#
0@#
b101 =#
b101 ?
b101 j#
b101 !$
b101 '$
b101 -$
b101 =$
0B#
0A#
0\#
0V#
b0 :#
1<#
1>
10
1&
#210
00
0&
#215
16#
0w#
1v#
b111 s#
0t#
0D
1+$
0*$
0($
0#$
0m#
1|#
1}#
1%$
1l#
b11 {#
1e#
1W#
0("
0C"
0="
0O"
1L"
1>"
1G"
b11 F"
b11 B"
b11 K"
10
1&
#220
00
0&
#225
1{
0H"
1E"
1A"
1@"
1@#
b10 {#
1*$
10
1&
#230
00
0&
#235
0{
1w#
1y#
16$
10$
1z#
1($
1#$
1m#
b1 {#
1'"
1("
1C"
1="
1)"
b100 !"
b10 ~
1O"
0N"
0L"
0>"
10
1&
#240
00
0&
#245
b0 x
b0 ;"
b0 D"
1O
0n#
1N"
b11 M"
b11 ?"
b11 }
b11 <"
0'"
b10 $"
b10 q
b10 R"
0)"
0("
0C"
0="
b0 !"
1#"
1p
1u
0}#
0%$
0l#
b0 {#
1;$
08$
04$
03$
0:$
0z#
10
1&
#250
00
0&
#255
b0xxxxxxxxxxxxxxx L
b0xxxxxxxxxxxxxxx m
b0xxxxxxxxxxxxxxx v
b0xxxxxxxxxxxxxxx -"
b0xxxxxxxxxxxxxxx 3"
b0xxxxxxxxxxxxxxx 9"
b0xxxxxxxxxxxxxxx I"
0O
1{
0x#
0v#
0y#
06$
00$
0B$
1:$
0+$
1Y
1Z
1r
1o
1[
b10 S
1V"
0U"
0S"
0s
1L"
1>"
10
1&
#260
00
0&
#265
b10 L
b10 m
b10 v
b10 -"
b10 3"
b10 9"
b10 I"
1n#
1+"
1,"
12"
1y
b11 *"
1'"
1U"
b10 T"
b10 t
b10 Q
b10 n
0Y
0[
0;$
18$
14$
13$
10
1&
#270
00
0&
#275
0n#
1x#
1y#
16$
10$
1z#
b1 r#
1B$
0A$
0?$
01$
0Z
0r
0o
0V"
1S"
1s
0&"
1%"
0#"
0p
0u
18"
07"
05"
00"
0z
b10 *"
10
1&
#280
00
0&
#285
b10 x
b10 ;"
b10 D"
0+"
b1 *"
17"
b10 6"
b10 1"
b10 |
b10 /"
1;$
08$
04$
03$
0:$
1A$
0x#
0z#
10
1&
#290
00
0&
#295
0y#
06$
00$
0B$
1?$
11$
1:$
1&"
0%"
1("
1C"
1="
1)"
08"
15"
10"
1z
0,"
02"
0y
b0 *"
10
1&
#300
00
0&
#305
0{
1n#
1H"
0E"
0A"
0@"
0G"
0)"
0;$
18$
14$
13$
10
1&
#310
00
0&
#315
b0xxxxxxxxxxxxxxx k#
b0xxxxxxxxxxxxxxx .$
b0xxxxxxxxxxxxxxx 7$
0n#
1x#
1y#
16$
10$
1z#
b10 r#
1B$
0A$
0?$
01$
0'"
0("
0C"
0="
0O"
1G"
10
1&
#320
00
0&
#325
1{
0H"
1E"
1A"
1@"
1;$
08$
04$
03$
0:$
1A$
0x#
0z#
10
1&
#330
00
0&
#335
0{
0y#
06$
00$
0B$
1?$
11$
1:$
1'"
1("
1C"
1="
1)"
b1 !"
b11 ~
1O"
0N"
0L"
0>"
10
1&
#340
00
0&
#345
1n#
1H"
0E"
0A"
0@"
0G"
1N"
0'"
0)"
0;$
18$
14$
13$
10
1&
#350
00
0&
#355
0n#
1x#
1y#
16$
10$
1z#
b11 r#
1B$
0A$
0?$
01$
0("
0C"
0="
0O"
1L"
1>"
1G"
10
1&
#360
00
0&
#365
1{
0H"
1E"
1A"
1@"
1;$
08$
04$
03$
0:$
1A$
0x#
0z#
10
1&
#370
00
0&
#375
b11 x
b11 ;"
b11 D"
0{
0y#
06$
00$
0B$
1?$
11$
1:$
1'"
1("
1C"
1="
1)"
b10 !"
1O"
0N"
0L"
0>"
10
1&
#380
00
0&
#385
1n#
1H"
0E"
0A"
0@"
0G"
1N"
0'"
0)"
0;$
18$
14$
13$
10
1&
#390
00
0&
#395
0n#
1x#
1y#
16$
10$
1z#
b100 r#
1B$
0A$
0?$
01$
0("
0C"
0="
0O"
1L"
1>"
1G"
b100 F"
b100 B"
b100 K"
10
1&
#400
00
0&
#405
1{
0H"
1E"
1A"
1@"
1;$
08$
04$
03$
0:$
1A$
0x#
0z#
10
1&
#410
00
0&
#415
0{
0y#
06$
00$
0B$
1?$
11$
1:$
1'"
1("
1C"
1="
1)"
b11 !"
1O"
0N"
0L"
0>"
10
1&
#420
00
0&
#425
b100 x
b100 ;"
b100 D"
1n#
1H"
0E"
0A"
0@"
0G"
1N"
b100 M"
b100 ?"
b100 }
b100 <"
0'"
0)"
0;$
18$
14$
13$
10
1&
#430
00
0&
#435
0n#
1x#
1y#
16$
10$
1z#
b101 r#
1B$
0A$
0?$
01$
0("
0C"
0="
0O"
1L"
1>"
1G"
b101 F"
b101 B"
b101 K"
10
1&
#440
00
0&
